{
  "serverPort": 5000,
  "dbURL": "mongodb+srv://admin:admin@cloud.wp7p9.mongodb.net/cloud-storage?retryWrites=true&w=majority",
  "secretKey": "cloud-storage-secret-key",
  "filePath": "C:\\Pe21\\cloud-storage\\server\\files"
}